{
    "/js/app.js": "/js/app.js?id=ea1df2cb9933eae18581",
    "/css/milligram.css": "/css/milligram.css?id=ed06af1ee88504b9790b",
    "/js/form.bundle.js": "/js/form.bundle.js?id=0809b99c693112236558"
}